<mxfile host="app.diagrams.net" modified="2023-12-05T07:12:35.927Z" agent="Mozilla/5.0 (X11; Ubuntu; Linux x86_64; rv:109.0) Gecko/20100101 Firefox/116.0" etag="E_UwOlhntwFbQie1zOO5" version="22.1.5" type="gitlab">
  <diagram name="Page-1" id="40UBkMcPzmD1TkoNcgZg">
    <mxGraphModel dx="913" dy="530" grid="1" gridSize="10" guides="1" tooltips="1" connect="1" arrows="1" fold="1" page="1" pageScale="1" pageWidth="850" pageHeight="1100" math="0" shadow="0">
      <root>
        <mxCell id="0" />
        <mxCell id="1" parent="0" />
        <mxCell id="IL7gSDIAP_L_bk5sjLK0-33" value="" style="edgeStyle=orthogonalEdgeStyle;rounded=0;orthogonalLoop=1;jettySize=auto;html=1;" edge="1" parent="1" source="IL7gSDIAP_L_bk5sjLK0-1" target="IL7gSDIAP_L_bk5sjLK0-5">
          <mxGeometry relative="1" as="geometry" />
        </mxCell>
        <mxCell id="IL7gSDIAP_L_bk5sjLK0-1" value="Incident/Accident" style="ellipse;shape=cloud;whiteSpace=wrap;html=1;" vertex="1" parent="1">
          <mxGeometry x="285" y="20" width="120" height="80" as="geometry" />
        </mxCell>
        <mxCell id="IL7gSDIAP_L_bk5sjLK0-32" value="" style="edgeStyle=orthogonalEdgeStyle;rounded=0;orthogonalLoop=1;jettySize=auto;html=1;" edge="1" parent="1" source="IL7gSDIAP_L_bk5sjLK0-2" target="IL7gSDIAP_L_bk5sjLK0-5">
          <mxGeometry relative="1" as="geometry" />
        </mxCell>
        <mxCell id="IL7gSDIAP_L_bk5sjLK0-34" value="" style="edgeStyle=orthogonalEdgeStyle;rounded=0;orthogonalLoop=1;jettySize=auto;html=1;" edge="1" parent="1" source="IL7gSDIAP_L_bk5sjLK0-2" target="IL7gSDIAP_L_bk5sjLK0-4">
          <mxGeometry relative="1" as="geometry" />
        </mxCell>
        <mxCell id="IL7gSDIAP_L_bk5sjLK0-2" value="&lt;div&gt;Response&lt;/div&gt;&lt;div&gt;Initiator&lt;br&gt;&lt;/div&gt;" style="shape=process;whiteSpace=wrap;html=1;backgroundOutline=1;" vertex="1" parent="1">
          <mxGeometry x="280" y="120" width="120" height="60" as="geometry" />
        </mxCell>
        <mxCell id="IL7gSDIAP_L_bk5sjLK0-4" value="&lt;ol&gt;&lt;li&gt;RSO / Police / Fire&lt;br&gt;&lt;/li&gt;&lt;li&gt;IN: receives the information, ask for detail&lt;br&gt;&lt;/li&gt;&lt;li&gt;OUT: advice to caller,&amp;nbsp;&amp;nbsp; &amp;nbsp;&amp;nbsp; &amp;nbsp; initiate the formal response&lt;br&gt;&lt;/li&gt;&lt;/ol&gt;" style="text;strokeColor=none;fillColor=none;html=1;whiteSpace=wrap;verticalAlign=middle;overflow=hidden;" vertex="1" parent="1">
          <mxGeometry x="50" y="105" width="210" height="90" as="geometry" />
        </mxCell>
        <mxCell id="IL7gSDIAP_L_bk5sjLK0-26" value="" style="edgeStyle=orthogonalEdgeStyle;rounded=0;orthogonalLoop=1;jettySize=auto;html=1;" edge="1" parent="1" source="IL7gSDIAP_L_bk5sjLK0-5" target="IL7gSDIAP_L_bk5sjLK0-10">
          <mxGeometry relative="1" as="geometry" />
        </mxCell>
        <mxCell id="IL7gSDIAP_L_bk5sjLK0-27" value="" style="edgeStyle=orthogonalEdgeStyle;rounded=0;orthogonalLoop=1;jettySize=auto;html=1;" edge="1" parent="1" source="IL7gSDIAP_L_bk5sjLK0-5" target="IL7gSDIAP_L_bk5sjLK0-6">
          <mxGeometry relative="1" as="geometry" />
        </mxCell>
        <mxCell id="IL7gSDIAP_L_bk5sjLK0-5" value="&lt;div&gt;Radiation&lt;/div&gt;&lt;div&gt;Hazard&lt;br&gt;&lt;/div&gt;" style="rhombus;whiteSpace=wrap;html=1;" vertex="1" parent="1">
          <mxGeometry x="300" y="200" width="80" height="80" as="geometry" />
        </mxCell>
        <mxCell id="IL7gSDIAP_L_bk5sjLK0-28" value="" style="edgeStyle=orthogonalEdgeStyle;rounded=0;orthogonalLoop=1;jettySize=auto;html=1;" edge="1" parent="1" source="IL7gSDIAP_L_bk5sjLK0-6" target="IL7gSDIAP_L_bk5sjLK0-7">
          <mxGeometry relative="1" as="geometry" />
        </mxCell>
        <mxCell id="IL7gSDIAP_L_bk5sjLK0-6" value="Record Detail" style="shape=document;whiteSpace=wrap;html=1;boundedLbl=1;" vertex="1" parent="1">
          <mxGeometry x="440" y="200" width="120" height="80" as="geometry" />
        </mxCell>
        <mxCell id="IL7gSDIAP_L_bk5sjLK0-7" value="Stop" style="ellipse;whiteSpace=wrap;html=1;aspect=fixed;" vertex="1" parent="1">
          <mxGeometry x="600" y="200" width="80" height="80" as="geometry" />
        </mxCell>
        <mxCell id="IL7gSDIAP_L_bk5sjLK0-24" value="" style="edgeStyle=orthogonalEdgeStyle;rounded=0;orthogonalLoop=1;jettySize=auto;html=1;" edge="1" parent="1" source="IL7gSDIAP_L_bk5sjLK0-8" target="IL7gSDIAP_L_bk5sjLK0-9">
          <mxGeometry relative="1" as="geometry" />
        </mxCell>
        <mxCell id="IL7gSDIAP_L_bk5sjLK0-25" value="" style="edgeStyle=orthogonalEdgeStyle;rounded=0;orthogonalLoop=1;jettySize=auto;html=1;" edge="1" parent="1" source="IL7gSDIAP_L_bk5sjLK0-8" target="IL7gSDIAP_L_bk5sjLK0-10">
          <mxGeometry relative="1" as="geometry" />
        </mxCell>
        <mxCell id="IL7gSDIAP_L_bk5sjLK0-8" value="&lt;div&gt;Activate&lt;/div&gt;&lt;div&gt;Emergency&lt;/div&gt;&lt;div&gt;Manager&lt;br&gt;&lt;/div&gt;" style="shape=process;whiteSpace=wrap;html=1;backgroundOutline=1;" vertex="1" parent="1">
          <mxGeometry x="280" y="310" width="120" height="60" as="geometry" />
        </mxCell>
        <mxCell id="IL7gSDIAP_L_bk5sjLK0-9" value="&lt;ol&gt;&lt;li&gt;Senior Emergency Response Member&lt;br&gt;&lt;/li&gt;&lt;li&gt;IN: basic information of emergency&lt;br&gt;&lt;/li&gt;&lt;li&gt;OUT: make strategy,&amp;nbsp;&amp;nbsp;&amp;nbsp;&amp;nbsp;&amp;nbsp;&amp;nbsp;&amp;nbsp;&amp;nbsp;&amp;nbsp;&amp;nbsp;&amp;nbsp;&amp;nbsp;&amp;nbsp;&amp;nbsp;&amp;nbsp;&amp;nbsp;&amp;nbsp; activate resources,&amp;nbsp;&amp;nbsp;&amp;nbsp;&amp;nbsp;&amp;nbsp;&amp;nbsp;&amp;nbsp;&amp;nbsp;&amp;nbsp;&amp;nbsp;&amp;nbsp;&amp;nbsp;&amp;nbsp;&amp;nbsp;&amp;nbsp;&amp;nbsp;&amp;nbsp;&amp;nbsp;&amp;nbsp;&amp;nbsp;&amp;nbsp; handle media&lt;br&gt;&lt;/li&gt;&lt;/ol&gt;" style="text;strokeColor=none;fillColor=none;html=1;whiteSpace=wrap;verticalAlign=middle;overflow=hidden;" vertex="1" parent="1">
          <mxGeometry x="10" y="295" width="250" height="90" as="geometry" />
        </mxCell>
        <mxCell id="IL7gSDIAP_L_bk5sjLK0-29" value="" style="edgeStyle=orthogonalEdgeStyle;rounded=0;orthogonalLoop=1;jettySize=auto;html=1;" edge="1" parent="1" source="IL7gSDIAP_L_bk5sjLK0-10" target="IL7gSDIAP_L_bk5sjLK0-17">
          <mxGeometry relative="1" as="geometry" />
        </mxCell>
        <mxCell id="IL7gSDIAP_L_bk5sjLK0-30" value="" style="edgeStyle=orthogonalEdgeStyle;rounded=0;orthogonalLoop=1;jettySize=auto;html=1;" edge="1" parent="1" source="IL7gSDIAP_L_bk5sjLK0-10" target="IL7gSDIAP_L_bk5sjLK0-11">
          <mxGeometry relative="1" as="geometry" />
        </mxCell>
        <mxCell id="IL7gSDIAP_L_bk5sjLK0-10" value="&lt;div&gt;Radiation&lt;/div&gt;&lt;div&gt;Hazard&lt;/div&gt;&lt;div&gt;Level&lt;br&gt;&lt;/div&gt;" style="rhombus;whiteSpace=wrap;html=1;" vertex="1" parent="1">
          <mxGeometry x="295" y="390" width="90" height="90" as="geometry" />
        </mxCell>
        <mxCell id="IL7gSDIAP_L_bk5sjLK0-23" value="" style="edgeStyle=orthogonalEdgeStyle;rounded=0;orthogonalLoop=1;jettySize=auto;html=1;" edge="1" parent="1" source="IL7gSDIAP_L_bk5sjLK0-11" target="IL7gSDIAP_L_bk5sjLK0-12">
          <mxGeometry relative="1" as="geometry" />
        </mxCell>
        <mxCell id="IL7gSDIAP_L_bk5sjLK0-11" value="&lt;div&gt;Activate&lt;/div&gt;&lt;div&gt;Radiological&lt;/div&gt;&lt;div&gt;Accessor&lt;br&gt;&lt;/div&gt;" style="shape=process;whiteSpace=wrap;html=1;backgroundOutline=1;" vertex="1" parent="1">
          <mxGeometry x="440" y="405" width="120" height="60" as="geometry" />
        </mxCell>
        <mxCell id="IL7gSDIAP_L_bk5sjLK0-12" value="&lt;ol&gt;&lt;li&gt;Senior Emergency Response Member&lt;br&gt;&lt;/li&gt;&lt;li&gt;IN: sent to the scene&lt;br&gt;&lt;/li&gt;&lt;li&gt;OUT: re-access hazard,&amp;nbsp;&amp;nbsp;&amp;nbsp;&amp;nbsp;&amp;nbsp;&amp;nbsp;&amp;nbsp;&amp;nbsp;&amp;nbsp;&amp;nbsp;&amp;nbsp;&amp;nbsp;&amp;nbsp;&amp;nbsp;&amp;nbsp;&amp;nbsp;&amp;nbsp; perform recovery.&lt;br&gt;&lt;/li&gt;&lt;/ol&gt;" style="text;strokeColor=none;fillColor=none;html=1;whiteSpace=wrap;verticalAlign=middle;overflow=hidden;" vertex="1" parent="1">
          <mxGeometry x="575" y="390" width="250" height="90" as="geometry" />
        </mxCell>
        <mxCell id="IL7gSDIAP_L_bk5sjLK0-31" value="" style="edgeStyle=orthogonalEdgeStyle;rounded=0;orthogonalLoop=1;jettySize=auto;html=1;" edge="1" parent="1" source="IL7gSDIAP_L_bk5sjLK0-14" target="IL7gSDIAP_L_bk5sjLK0-15">
          <mxGeometry relative="1" as="geometry" />
        </mxCell>
        <mxCell id="IL7gSDIAP_L_bk5sjLK0-14" value="&lt;div&gt;Activate&lt;/div&gt;&lt;div&gt;Radiological&lt;/div&gt;&lt;div&gt;Accessor&lt;br&gt;&lt;/div&gt;" style="shape=process;whiteSpace=wrap;html=1;backgroundOutline=1;" vertex="1" parent="1">
          <mxGeometry x="440" y="520" width="120" height="60" as="geometry" />
        </mxCell>
        <mxCell id="IL7gSDIAP_L_bk5sjLK0-15" value="&lt;ol&gt;&lt;li&gt;Senior Emergency Response Member&lt;br&gt;&lt;/li&gt;&lt;li&gt;IN: sent to the scene&lt;br&gt;&lt;/li&gt;&lt;li&gt;OUT: access hazard,&amp;nbsp;&amp;nbsp;&amp;nbsp;&amp;nbsp;&amp;nbsp;&amp;nbsp;&amp;nbsp;&amp;nbsp;&amp;nbsp;&amp;nbsp;&amp;nbsp;&amp;nbsp;&amp;nbsp;&amp;nbsp;&amp;nbsp;&amp;nbsp;&amp;nbsp; recommend actions.&lt;br&gt;&lt;/li&gt;&lt;/ol&gt;" style="text;strokeColor=none;fillColor=none;html=1;whiteSpace=wrap;verticalAlign=middle;overflow=hidden;" vertex="1" parent="1">
          <mxGeometry x="575" y="505" width="250" height="90" as="geometry" />
        </mxCell>
        <mxCell id="IL7gSDIAP_L_bk5sjLK0-21" value="" style="edgeStyle=orthogonalEdgeStyle;rounded=0;orthogonalLoop=1;jettySize=auto;html=1;" edge="1" parent="1" source="IL7gSDIAP_L_bk5sjLK0-16" target="IL7gSDIAP_L_bk5sjLK0-18">
          <mxGeometry relative="1" as="geometry" />
        </mxCell>
        <mxCell id="IL7gSDIAP_L_bk5sjLK0-16" value="&lt;div&gt;Activate&lt;/div&gt;&lt;div&gt;First Responder&lt;br&gt;&lt;/div&gt;&lt;div&gt;(if not yet activated)&lt;br&gt;&lt;/div&gt;" style="shape=process;whiteSpace=wrap;html=1;backgroundOutline=1;" vertex="1" parent="1">
          <mxGeometry x="85" y="520" width="140" height="60" as="geometry" />
        </mxCell>
        <mxCell id="IL7gSDIAP_L_bk5sjLK0-22" value="" style="edgeStyle=orthogonalEdgeStyle;rounded=0;orthogonalLoop=1;jettySize=auto;html=1;" edge="1" parent="1" source="IL7gSDIAP_L_bk5sjLK0-17" target="IL7gSDIAP_L_bk5sjLK0-19">
          <mxGeometry relative="1" as="geometry" />
        </mxCell>
        <mxCell id="IL7gSDIAP_L_bk5sjLK0-17" value="&lt;div&gt;Designage&lt;br&gt;&lt;/div&gt;&lt;div&gt;On-Scene&lt;/div&gt;&lt;div&gt;Controller&lt;br&gt;&lt;/div&gt;" style="shape=process;whiteSpace=wrap;html=1;backgroundOutline=1;" vertex="1" parent="1">
          <mxGeometry x="280" y="520" width="120" height="60" as="geometry" />
        </mxCell>
        <mxCell id="IL7gSDIAP_L_bk5sjLK0-18" value="&lt;ol&gt;&lt;li&gt;RSO / Police / Fire&lt;br&gt;&lt;/li&gt;&lt;li&gt;IN: first official team on the scene&lt;br&gt;&lt;/li&gt;&lt;li&gt;OUT: mitigate the consequences, perform recovery&lt;br&gt;&lt;/li&gt;&lt;/ol&gt;" style="text;strokeColor=none;fillColor=none;html=1;whiteSpace=wrap;verticalAlign=middle;overflow=hidden;" vertex="1" parent="1">
          <mxGeometry x="10" y="600" width="225" height="90" as="geometry" />
        </mxCell>
        <mxCell id="IL7gSDIAP_L_bk5sjLK0-19" value="&lt;ol&gt;&lt;li&gt;Senior On-Scene Member&lt;br&gt;&lt;/li&gt;&lt;li&gt;IN: team sent/present on the scene &lt;br&gt;&lt;/li&gt;&lt;li&gt;OUT: management of response actions, implementation of Emergency Manager strategy.&lt;br&gt;&lt;/li&gt;&lt;/ol&gt;" style="text;strokeColor=none;fillColor=none;html=1;whiteSpace=wrap;verticalAlign=middle;overflow=hidden;" vertex="1" parent="1">
          <mxGeometry x="250" y="600" width="310" height="90" as="geometry" />
        </mxCell>
      </root>
    </mxGraphModel>
  </diagram>
</mxfile>
