<mxfile host="app.diagrams.net" modified="2024-01-29T09:01:56.650Z" agent="Mozilla/5.0 (X11; Ubuntu; Linux x86_64; rv:109.0) Gecko/20100101 Firefox/116.0" etag="jMuIG9LigjyOwKsi5g7I" version="23.0.2" type="gitlab">
  <diagram name="Page-1" id="OOyWaFUWTR0UAI647EVj">
    <mxGraphModel dx="1370" dy="749" grid="1" gridSize="10" guides="1" tooltips="1" connect="1" arrows="1" fold="1" page="1" pageScale="1" pageWidth="827" pageHeight="1169" math="0" shadow="0">
      <root>
        <mxCell id="0" />
        <mxCell id="1" parent="0" />
        <mxCell id="R-cU5k0XN0-MA7sXQchB-1" value="RADIOLOGICAL EMERGENCY" style="rounded=0;whiteSpace=wrap;html=1;" parent="1" vertex="1">
          <mxGeometry x="40" y="40" width="760" height="80" as="geometry" />
        </mxCell>
        <mxCell id="R-cU5k0XN0-MA7sXQchB-2" value="&lt;div&gt;Observables + EAL = HAZARD 1 / 2 / 3&lt;/div&gt;&lt;div&gt;Observables = HAZARD 4&lt;br&gt; &lt;/div&gt;" style="rounded=0;whiteSpace=wrap;html=1;" parent="1" vertex="1">
          <mxGeometry x="40" y="160" width="760" height="80" as="geometry" />
        </mxCell>
        <mxCell id="R-cU5k0XN0-MA7sXQchB-3" value="&lt;div&gt;OIL 1: GROUND CONTAMINATION : URGENT PROTECTIVE ACTIONS&lt;/div&gt;&lt;div&gt;OIL 2: GROUND CONTAMINATION : EARLY PROTECTIVE ACTIONS&lt;/div&gt;&lt;div&gt;OIL 3: GROUND CONTAMINATION : IMMEDIATE RESTRICTIONS&lt;/div&gt;&lt;div&gt;OIL4: SKIN CONTAMINATION : DECONTAMINATION / MEDICAL EXAMINATION&lt;/div&gt;&lt;div&gt;OIL 5&amp;amp;6: FOOD, MILK, WATER CONTAMINATION : RESTRICTIONS ON CONSUMPTION&lt;br&gt;&lt;/div&gt;" style="rounded=0;whiteSpace=wrap;html=1;" parent="1" vertex="1">
          <mxGeometry x="40" y="280" width="760" height="80" as="geometry" />
        </mxCell>
        <mxCell id="R-cU5k0XN0-MA7sXQchB-4" value="&lt;div&gt;OFF-SITE EMERGENCY&lt;/div&gt;&lt;div&gt;OIL 1: URGENT PROTECTIVE ACTION PLANNING ZONE (UPZ)&lt;/div&gt;&lt;div&gt;OIL 2 &amp;amp; 3: PRECAUTIONARY ACTION ZONE (PAZ)&lt;/div&gt;&lt;div&gt;OIL 4, 5 &amp;amp; 6: EMERGENCY PLANNING ZONE (EPZ)&lt;/div&gt;&lt;div&gt;&lt;br&gt;&lt;/div&gt;&lt;div&gt;EXCLUSION ZONE: 1.6 KM No public habitation is permitted.&lt;/div&gt;" style="rounded=0;whiteSpace=wrap;html=1;" parent="1" vertex="1">
          <mxGeometry x="40" y="400" width="760" height="110" as="geometry" />
        </mxCell>
      </root>
    </mxGraphModel>
  </diagram>
</mxfile>
